<svg width="97" height="74" viewBox="0 0 97 74" fill="none" xmlns="http://www.w3.org/2000/svg">
<path d="M90 38H89.18L82.84 26.62C82.2893 25.8122 81.5495 25.1513 80.685 24.6947C79.8206 24.2381 78.8576 23.9996 77.88 24H64V8.00001H44V12H60V60H35.14C34.3576 58.2255 33.076 56.7168 31.4514 55.6576C29.8269 54.5985 27.9294 54.0345 25.99 54.0345C24.0507 54.0345 22.1531 54.5985 20.5286 55.6576C18.904 56.7168 17.6224 58.2255 16.84 60H12V44H8V64H16C16 66.6522 17.0536 69.1957 18.9289 71.0711C20.8043 72.9464 23.3478 74 26 74C28.6522 74 31.1957 72.9464 33.0711 71.0711C34.9464 69.1957 36 66.6522 36 64H68C68 66.6522 69.0536 69.1957 70.9289 71.0711C72.8043 72.9464 75.3478 74 78 74C80.6522 74 83.1957 72.9464 85.0711 71.0711C86.9464 69.1957 88 66.6522 88 64H90C91.5913 64 93.1174 63.3679 94.2426 62.2426C95.3679 61.1174 96 59.5913 96 58V44.42C96.0577 43.5975 95.9453 42.7719 95.6697 41.9947C95.3941 41.2176 94.9613 40.5056 94.3983 39.9032C93.8353 39.3007 93.1542 38.8208 92.3974 38.4934C91.6407 38.1659 90.8246 37.998 90 38ZM26 70C24.8133 70 23.6533 69.6481 22.6666 68.9888C21.6799 68.3295 20.9109 67.3925 20.4567 66.2961C20.0026 65.1997 19.8838 63.9934 20.1153 62.8295C20.3468 61.6656 20.9182 60.5965 21.7574 59.7574C22.5965 58.9183 23.6656 58.3468 24.8295 58.1153C25.9933 57.8838 27.1997 58.0026 28.2961 58.4567C29.3925 58.9109 30.3295 59.6799 30.9888 60.6666C31.6481 61.6533 32 62.8133 32 64C32 65.5913 31.3679 67.1174 30.2426 68.2426C29.1174 69.3679 27.5913 70 26 70ZM78 70C76.8133 70 75.6533 69.6481 74.6666 68.9888C73.6799 68.3295 72.9109 67.3925 72.4567 66.2961C72.0026 65.1997 71.8838 63.9934 72.1153 62.8295C72.3468 61.6656 72.9183 60.5965 73.7574 59.7574C74.5965 58.9183 75.6656 58.3468 76.8295 58.1153C77.9933 57.8838 79.1997 58.0026 80.2961 58.4567C81.3925 58.9109 82.3295 59.6799 82.9888 60.6666C83.6481 61.6533 84 62.8133 84 64C84 65.5913 83.3679 67.1174 82.2426 68.2426C81.1174 69.3679 79.5913 70 78 70ZM92 58C92 58.5304 91.7893 59.0391 91.4142 59.4142C91.0391 59.7893 90.5304 60 90 60H87.14C86.3576 58.2255 85.076 56.7168 83.4514 55.6576C81.8269 54.5985 79.9294 54.0345 77.99 54.0345C76.0506 54.0345 74.1531 54.5985 72.5286 55.6576C70.904 56.7168 69.6224 58.2255 68.84 60H64V28H77.88C78.1772 27.9966 78.4714 28.0594 78.7413 28.184C79.0111 28.3085 79.2498 28.4916 79.44 28.72L86.82 42H90C91.32 42 92 42.82 92 44.42V58ZM77.66 32.88L82 39.4V44H66V40H77.6L74.34 35.1L77.66 32.88ZM44 22C44 17.6488 42.7097 13.3953 40.2923 9.77746C37.8749 6.15958 34.439 3.33979 30.419 1.67466C26.3991 0.00953233 21.9756 -0.426141 17.708 0.422734C13.4404 1.27161 9.52041 3.36691 6.44365 6.44366C3.3669 9.52042 1.2716 13.4404 0.422726 17.708C-0.426149 21.9756 0.0095247 26.3991 1.67465 30.419C3.33978 34.439 6.15957 37.8749 9.77746 40.2923C13.3953 42.7097 17.6488 44 22 44C27.8348 44 33.4306 41.6822 37.5564 37.5564C41.6822 33.4306 44 27.8348 44 22ZM4 22C4 18.4399 5.05568 14.9598 7.03355 11.9997C9.01141 9.03966 11.8226 6.73256 15.1117 5.37018C18.4008 4.0078 22.02 3.65134 25.5116 4.34587C29.0033 5.04041 32.2106 6.75474 34.7279 9.27209C37.2453 11.7894 38.9596 14.9967 39.6541 18.4884C40.3487 21.98 39.9922 25.5992 38.6298 28.8883C37.2675 32.1774 34.9604 34.9886 32.0003 36.9665C29.0402 38.9443 25.5601 40 22 40C17.2261 40 12.6477 38.1036 9.27208 34.7279C5.89642 31.3523 4 26.7739 4 22ZM30 24H20V8.00001H24V20H30V24Z" fill="#A3ABBB"/>
</svg>
