<svg width="20" height="20" viewBox="0 0 20 20" fill="none" xmlns="http://www.w3.org/2000/svg">
<path fill-rule="evenodd" clip-rule="evenodd" d="M18.8889 0L19.3858 8.94453L19.8827 17.8891C19.944 18.9919 19.0996 19.9357 17.9967 19.9969C17.969 19.9982 17.9552 19.9988 17.9413 19.9992C17.9275 19.9996 17.9137 19.9997 17.8861 20H17.8858H2C0.895431 20 0 19.1046 0 18C0.000513413 17.9445 0.000513413 17.9445 0.00307929 17.8891L0.996916 0H18.8889ZM2.88889 2.00002L2 18H17.8858L16.9969 2.00002H2.88889ZM6.94287 4.00006H4.94287V6.50004C4.94287 8.90072 7.26611 11 9.94287 11C12.6196 11 14.9429 8.90072 14.9429 6.50004V4.00006H12.9429V6.50004C12.9429 7.74841 11.5577 9.00002 9.94287 9.00002C8.32801 9.00002 6.94287 7.74841 6.94287 6.50004V4.00006Z" fill="#AAE2FF"/>
</svg>
