<svg width="24" height="22" viewBox="0 0 24 22" fill="none" xmlns="http://www.w3.org/2000/svg">
<path d="M12 0L14.8214 8.11672L23.4127 8.2918L16.5651 13.4833L19.0534 21.7082L12 16.8L4.94658 21.7082L7.43493 13.4833L0.587322 8.2918L9.17863 8.11672L12 0Z" fill="#D6DBE4"/>
</svg>
