<svg width="20" height="20" viewBox="0 0 20 20" fill="none" xmlns="http://www.w3.org/2000/svg">
<path d="M10 0.399994C4.6984 0.399994 0.400002 4.69839 0.400002 9.99999C0.400002 11.801 0.905875 13.48 1.76875 14.9203L0.485939 19.6L5.26563 18.3453C6.66348 19.14 8.27719 19.6 10 19.6C15.3016 19.6 19.6 15.3016 19.6 9.99999C19.6 4.69839 15.3016 0.399994 10 0.399994ZM6.71406 5.52187C6.87006 5.52187 7.03035 5.52092 7.16875 5.52812C7.33995 5.53212 7.52629 5.54466 7.70469 5.93906C7.91669 6.40786 8.3783 7.58392 8.4375 7.70312C8.4967 7.82232 8.53865 7.96274 8.45625 8.11874C8.37785 8.27874 8.33708 8.37558 8.22188 8.51718C8.10268 8.65478 7.97206 8.82568 7.86406 8.92968C7.74486 9.04888 7.62178 9.17958 7.75938 9.41718C7.89698 9.65478 8.37485 10.4337 9.08125 11.0625C9.98925 11.8737 10.7554 12.123 10.9938 12.2422C11.2322 12.3614 11.3702 12.3428 11.5078 12.1828C11.6494 12.0268 12.1025 11.4915 12.2625 11.2531C12.4185 11.0147 12.5778 11.056 12.7938 11.1344C13.013 11.2128 14.1819 11.7886 14.4203 11.9078C14.6587 12.027 14.815 12.086 14.875 12.1828C14.9366 12.2828 14.9367 12.7589 14.7391 13.3141C14.5415 13.8685 13.5711 14.4046 13.1359 14.4422C12.6967 14.483 12.2869 14.6396 10.2813 13.85C7.86205 12.8972 6.33639 10.4194 6.21719 10.2594C6.09799 10.1034 5.24844 8.97112 5.24844 7.80312C5.24844 6.63112 5.86293 6.05714 6.07813 5.81874C6.29733 5.58034 6.55406 5.52187 6.71406 5.52187Z" fill="#57C067"/>
</svg>
